{
    "properties": [
        {
            "modifiers": [
                "public"
            ], 
            "name": "listAppointmentwrapper", 
            "visibility": "PUBLIC", 
            "references": [], 
            "location": {
                "column": 37, 
                "line": 11
            }, 
            "type": "LIST"
        }, 
        {
            "modifiers": [
                "public"
            ], 
            "name": "listCancelledAppointmentwrapper", 
            "visibility": "PUBLIC", 
            "references": [], 
            "location": {
                "column": 37, 
                "line": 12
            }, 
            "type": "LIST"
        }, 
        {
            "modifiers": [
                "public"
            ], 
            "name": "UserTimezone", 
            "visibility": "PUBLIC", 
            "references": [], 
            "location": {
                "column": 19, 
                "line": 13
            }, 
            "type": "String"
        }, 
        {
            "modifiers": [
                "private"
            ], 
            "name": "reccontact", 
            "visibility": "PRIVATE", 
            "references": [], 
            "location": {
                "column": 13, 
                "line": 14
            }, 
            "type": "Contact"
        }, 
        {
            "modifiers": [
                "public"
            ], 
            "name": "ContactID", 
            "visibility": "PUBLIC", 
            "references": [], 
            "location": {
                "column": 15, 
                "line": 15
            }, 
            "type": "Id"
        }
    ], 
    "externalReferences": [], 
    "innerClasses": [
        {
            "properties": [
                {
                    "modifiers": [
                        "public"
                    ], 
                    "name": "Appointment", 
                    "visibility": "PUBLIC", 
                    "references": [], 
                    "location": {
                        "column": 23, 
                        "line": 74
                    }, 
                    "type": "Event"
                }, 
                {
                    "modifiers": [
                        "public"
                    ], 
                    "name": "eventrels", 
                    "visibility": "PUBLIC", 
                    "references": [], 
                    "location": {
                        "column": 37, 
                        "line": 75
                    }, 
                    "type": "LIST"
                }, 
                {
                    "modifiers": [
                        "public"
                    ], 
                    "name": "listpatientnames", 
                    "visibility": "PUBLIC", 
                    "references": [], 
                    "location": {
                        "column": 30, 
                        "line": 76
                    }, 
                    "type": "LIST"
                }, 
                {
                    "modifiers": [
                        "public"
                    ], 
                    "name": "FormattedStartDate", 
                    "visibility": "PUBLIC", 
                    "references": [], 
                    "location": {
                        "column": 24, 
                        "line": 77
                    }, 
                    "type": "String"
                }, 
                {
                    "modifiers": [
                        "public"
                    ], 
                    "name": "FormattedEndDate", 
                    "visibility": "PUBLIC", 
                    "references": [], 
                    "location": {
                        "column": 24, 
                        "line": 78
                    }, 
                    "type": "String"
                }, 
                {
                    "modifiers": [
                        "public"
                    ], 
                    "name": "Randomnumber", 
                    "visibility": "PUBLIC", 
                    "references": [], 
                    "location": {
                        "column": 24, 
                        "line": 79
                    }, 
                    "type": "String"
                }, 
                {
                    "modifiers": [
                        "public"
                    ], 
                    "name": "practitionername", 
                    "visibility": "PUBLIC", 
                    "references": [], 
                    "location": {
                        "column": 24, 
                        "line": 80
                    }, 
                    "type": "String"
                }, 
                {
                    "modifiers": [
                        "public"
                    ], 
                    "name": "patientname", 
                    "visibility": "PUBLIC", 
                    "references": [], 
                    "location": {
                        "column": 24, 
                        "line": 81
                    }, 
                    "type": "String"
                }
            ], 
            "externalReferences": [], 
            "innerClasses": [], 
            "interfaces": [], 
            "constructors": [
                {
                    "modifiers": [
                        "public"
                    ], 
                    "name": "Appointmentwrapper", 
                    "parameters": [
                        {
                            "type": "Event", 
                            "name": "app"
                        }
                    ], 
                    "visibility": "PUBLIC", 
                    "references": [], 
                    "location": {
                        "column": 17, 
                        "line": 83
                    }, 
                    "type": null
                }
            ], 
            "namespace": null, 
            "name": "Appointmentwrapper", 
            "tableDeclaration": {
                "type": "Appointmentwrapper", 
                "modifiers": [
                    "public"
                ], 
                "references": [], 
                "location": {
                    "column": 17, 
                    "line": 72
                }, 
                "name": "Appointmentwrapper"
            }, 
            "key": null, 
            "variables": [
                {
                    "type": "Event", 
                    "modifiers": [], 
                    "references": [], 
                    "location": {
                        "column": 42, 
                        "line": 83
                    }, 
                    "name": "app"
                }, 
                {
                    "type": "Set", 
                    "modifiers": [], 
                    "references": [], 
                    "location": {
                        "column": 22, 
                        "line": 91
                    }, 
                    "name": "setrelids"
                }, 
                {
                    "type": "EventRelation", 
                    "modifiers": [], 
                    "references": [], 
                    "location": {
                        "column": 32, 
                        "line": 93
                    }, 
                    "name": "ER"
                }, 
                {
                    "type": "LIST", 
                    "modifiers": [], 
                    "references": [], 
                    "location": {
                        "column": 29, 
                        "line": 97
                    }, 
                    "name": "lstpatients"
                }, 
                {
                    "type": "Contact", 
                    "modifiers": [], 
                    "references": [], 
                    "location": {
                        "column": 26, 
                        "line": 98
                    }, 
                    "name": "con"
                }, 
                {
                    "type": "Id", 
                    "modifiers": [], 
                    "references": [], 
                    "location": {
                        "column": 35, 
                        "line": 108
                    }, 
                    "name": "whoid"
                }, 
                {
                    "type": "String", 
                    "modifiers": [], 
                    "references": [], 
                    "location": {
                        "column": 20, 
                        "line": 110
                    }, 
                    "name": "name"
                }, 
                {
                    "type": "Contact", 
                    "modifiers": [], 
                    "references": [], 
                    "location": {
                        "column": 21, 
                        "line": 113
                    }, 
                    "name": "con"
                }, 
                {
                    "type": "Datetime", 
                    "modifiers": [], 
                    "references": [], 
                    "location": {
                        "column": 49, 
                        "line": 122
                    }, 
                    "name": "appdate"
                }, 
                {
                    "type": "String", 
                    "modifiers": [], 
                    "references": [], 
                    "location": {
                        "column": 21, 
                        "line": 124
                    }, 
                    "name": "s"
                }, 
                {
                    "type": "String", 
                    "modifiers": [], 
                    "references": [], 
                    "location": {
                        "column": 21, 
                        "line": 125
                    }, 
                    "name": "s1"
                }, 
                {
                    "type": "String", 
                    "modifiers": [], 
                    "references": [], 
                    "location": {
                        "column": 21, 
                        "line": 126
                    }, 
                    "name": "s2"
                }, 
                {
                    "type": "String", 
                    "modifiers": [], 
                    "references": [], 
                    "location": {
                        "column": 21, 
                        "line": 127
                    }, 
                    "name": "s3"
                }, 
                {
                    "type": "String", 
                    "modifiers": [], 
                    "references": [], 
                    "location": {
                        "column": 21, 
                        "line": 128
                    }, 
                    "name": "s4"
                }, 
                {
                    "type": "String", 
                    "modifiers": [], 
                    "references": [], 
                    "location": {
                        "column": 21, 
                        "line": 129
                    }, 
                    "name": "s5"
                }, 
                {
                    "type": "String", 
                    "modifiers": [], 
                    "references": [], 
                    "location": {
                        "column": 21, 
                        "line": 130
                    }, 
                    "name": "s6"
                }, 
                {
                    "type": "String", 
                    "modifiers": [], 
                    "references": [], 
                    "location": {
                        "column": 21, 
                        "line": 131
                    }, 
                    "name": "s7"
                }, 
                {
                    "type": "String", 
                    "modifiers": [], 
                    "references": [], 
                    "location": {
                        "column": 21, 
                        "line": 132
                    }, 
                    "name": "formattedstring"
                }, 
                {
                    "type": "Date", 
                    "modifiers": [], 
                    "references": [], 
                    "location": {
                        "column": 19, 
                        "line": 134
                    }, 
                    "name": "myDate"
                }
            ], 
            "id": null, 
            "methods": [
                {
                    "modifiers": [
                        "public"
                    ], 
                    "name": "getname", 
                    "parameters": [
                        {
                            "type": "Id", 
                            "name": "whoid"
                        }
                    ], 
                    "visibility": "PUBLIC", 
                    "references": [], 
                    "location": {
                        "column": 24, 
                        "line": 108
                    }, 
                    "returnType": "String", 
                    "type": null
                }, 
                {
                    "modifiers": [
                        "public"
                    ], 
                    "name": "getformateddate", 
                    "parameters": [
                        {
                            "type": "Datetime", 
                            "name": "appdate"
                        }
                    ], 
                    "visibility": "PUBLIC", 
                    "references": [], 
                    "location": {
                        "column": 24, 
                        "line": 122
                    }, 
                    "returnType": "String", 
                    "type": null
                }
            ]
        }
    ], 
    "interfaces": [], 
    "constructors": [
        {
            "modifiers": [
                "public"
            ], 
            "name": "Cntrl_getappointments", 
            "parameters": [], 
            "visibility": "PUBLIC", 
            "references": [], 
            "location": {
                "column": 12, 
                "line": 22
            }, 
            "type": null
        }
    ], 
    "namespace": null, 
    "name": "Cntrl_getappointments", 
    "tableDeclaration": {
        "type": "Cntrl_getappointments", 
        "modifiers": [
            "public"
        ], 
        "references": [], 
        "location": {
            "column": 14, 
            "line": 8
        }, 
        "name": "Cntrl_getappointments"
    }, 
    "key": "01p28000004zRybAAE", 
    "variables": [
        {
            "type": "TimeZone", 
            "modifiers": [], 
            "references": [], 
            "location": {
                "column": 18, 
                "line": 24
            }, 
            "name": "tz"
        }, 
        {
            "type": "Date", 
            "modifiers": [], 
            "references": [], 
            "location": {
                "column": 18, 
                "line": 35
            }, 
            "name": "dstart"
        }, 
        {
            "type": "Date", 
            "modifiers": [], 
            "references": [], 
            "location": {
                "column": 18, 
                "line": 36
            }, 
            "name": "dend"
        }, 
        {
            "type": "Datetime", 
            "modifiers": [], 
            "references": [], 
            "location": {
                "column": 22, 
                "line": 37
            }, 
            "name": "dtstart"
        }, 
        {
            "type": "Datetime", 
            "modifiers": [], 
            "references": [], 
            "location": {
                "column": 22, 
                "line": 38
            }, 
            "name": "dtend"
        }, 
        {
            "type": "Event", 
            "modifiers": [], 
            "references": [], 
            "location": {
                "column": 23, 
                "line": 41
            }, 
            "name": "app"
        }, 
        {
            "type": "Date", 
            "modifiers": [], 
            "references": [], 
            "location": {
                "column": 18, 
                "line": 58
            }, 
            "name": "dstart"
        }, 
        {
            "type": "Date", 
            "modifiers": [], 
            "references": [], 
            "location": {
                "column": 18, 
                "line": 59
            }, 
            "name": "dend"
        }, 
        {
            "type": "Datetime", 
            "modifiers": [], 
            "references": [], 
            "location": {
                "column": 22, 
                "line": 60
            }, 
            "name": "dtstart"
        }, 
        {
            "type": "Datetime", 
            "modifiers": [], 
            "references": [], 
            "location": {
                "column": 22, 
                "line": 61
            }, 
            "name": "dtend"
        }, 
        {
            "type": "Event", 
            "modifiers": [], 
            "references": [], 
            "location": {
                "column": 23, 
                "line": 64
            }, 
            "name": "app"
        }
    ], 
    "id": "01p28000004zRybAAE", 
    "methods": [
        {
            "modifiers": [
                "public"
            ], 
            "name": "getAppointmentwrapperlist", 
            "parameters": [], 
            "visibility": "PUBLIC", 
            "references": [], 
            "location": {
                "column": 37, 
                "line": 27
            }, 
            "returnType": "LIST", 
            "type": null
        }, 
        {
            "modifiers": [
                "public"
            ], 
            "name": "getCancelledAppointmentwrapperlist", 
            "parameters": [], 
            "visibility": "PUBLIC", 
            "references": [], 
            "location": {
                "column": 37, 
                "line": 49
            }, 
            "returnType": "LIST", 
            "type": null
        }
    ]
}